10
Supplier1,1
Product1,1320,1260.0,1500.0
Supplier2,9
Product2,1140,910.0,1820.0
Product3,1050,910.0,1660.0
Product4,730,420.0,1870.0
Product5,1020,790.0,1800.0
Product6,760,330.0,810.0
Product7,830,370.0,2630.0
Product8,1050,570.0,1340.0
Product9,970,600.0,2170.0
Product10,1380,1050.0,2450.0
Supplier3,5
Product11,500,160.0,2460.0
Product12,1160,1010.0,1790.0
Product13,1480,1110.0,2200.0
Product14,1460,1260.0,1560.0
Product15,520,60.0,1120.0
Supplier4,7
Product16,1260,1150.0,1560.0
Product17,830,720.0,1580.0
Product18,730,450.0,2570.0
Product19,1050,870.0,2770.0
Product20,790,690.0,2370.0
Product21,830,380.0,1300.0
Product22,950,580.0,1560.0
Supplier5,5
Product23,790,650.0,2470.0
Product24,760,710.0,1060.0
Product25,1230,900.0,1570.0
Product26,990,720.0,2510.0
Product27,1390,1300.0,2260.0
Supplier6,10
Product28,1430,1300.0,3330.0
Product29,940,680.0,1970.0
Product30,680,620.0,1800.0
Product31,1000,850.0,1200.0
Product32,1330,1160.0,2460.0
Product33,1010,650.0,2280.0
Product34,1480,1360.0,1730.0
Product35,540,370.0,570.0
Product36,1390,1110.0,1810.0
Product37,1480,1340.0,2920.0
Supplier7,8
Product38,1460,1210.0,2050.0
Product39,1340,1100.0,2400.0
Product40,1150,740.0,2340.0
Product41,510,20.0,2030.0
Product42,640,360.0,940.0
Product43,880,400.0,2540.0
Product44,1050,740.0,2440.0
Product45,910,630.0,1720.0
Supplier8,6
Product46,790,690.0,1380.0
Product47,790,350.0,850.0
Product48,1080,870.0,2270.0
Product49,1260,1210.0,3070.0
Product50,1290,1110.0,1660.0
Product51,1470,1390.0,2640.0
Supplier9,9
Product52,560,240.0,2210.0
Product53,700,250.0,1950.0
Product54,1040,610.0,2180.0
Product55,1470,1420.0,2530.0
Product56,540,460.0,1180.0
Product57,650,470.0,1020.0
Product58,970,860.0,2560.0
Product59,740,540.0,1050.0
Product60,900,760.0,1410.0
Supplier10,2
Product61,1160,740.0,2390.0
Product62,1270,1130.0,2880.0
7
Market0,3
Customer0,Customer1,Customer2,
1260.0,1294.29,1292.5
910.0,1040.0,977.22
910.0,1017.14,1006.96
420.0,627.14,626.05
790.0,934.29,886.55
330.0,398.57,341.43
370.0,692.86,371.01
570.0,680.0,589.41
600.0,824.29,686.69
1050.0,1250.0,1140.54
160.0,488.57,415.87
1010.0,1121.43,1067.29
1110.0,1265.71,1113.22
1260.0,1302.86,1265.25
60.0,211.43,119.45
1150.0,1208.57,1164.86
720.0,842.86,753.47
450.0,752.86,521.35
870.0,1141.43,1048.2
690.0,930.0,800.29
380.0,511.43,412.16
580.0,720.0,583.1
650.0,910.0,679.81
710.0,760.0,727.12
900.0,995.71,968.9
720.0,975.71,842.51
1300.0,1437.14,1312.16
1300.0,1590.0,1421.29
680.0,864.29,856.92
620.0,788.57,753.34
850.0,900.0,899.83
1160.0,1345.71,1203.51
650.0,882.86,819.35
1360.0,1412.86,1371.56
370.0,398.57,372.88
1110.0,1210.0,1169.55
1340.0,1565.71,1414.82
1210.0,1330.0,1232.55
1100.0,1285.71,1185.9
740.0,968.57,843.36
20.0,307.14,279.82
360.0,442.86,436.61
400.0,705.71,490.79
740.0,982.86,951.08
630.0,785.71,750.54
690.0,788.57,703.45
350.0,421.43,356.94
870.0,1070.0,1026.73
1210.0,1475.71,1411.35
1110.0,1188.57,1182.18
1390.0,1568.57,1547.04
240.0,521.43,404.92
250.0,492.86,358.87
610.0,834.29,671.75
1420.0,1578.57,1522.08
460.0,562.86,552.89
470.0,548.57,474.58
860.0,1102.86,954.34
540.0,612.86,589.47
760.0,852.86,792.88
740.0,975.71,788.5
1130.0,1380.0,1141.41
Market1,3
Customer3,Customer4,Customer5,
1294.29,1328.57,1308.8
1040.0,1170.0,1071.49
1017.14,1124.29,1091.63
627.14,834.29,649.82
934.29,1078.57,1009.38
398.57,467.14,455.53
692.86,1015.71,958.22
680.0,790.0,698.79
824.29,1048.57,1039.83
1250.0,1450.0,1441.32
488.57,817.14,554.63
1121.43,1232.86,1176.86
1265.71,1421.43,1283.19
1302.86,1345.71,1338.24
211.43,362.86,236.32
1208.57,1267.14,1247.83
842.86,965.71,918.09
752.86,1055.71,760.48
1141.43,1412.86,1216.91
930.0,1170.0,996.49
511.43,642.86,532.17
720.0,860.0,811.33
910.0,1170.0,938.12
760.0,810.0,800.58
995.71,1091.43,1045.59
975.71,1231.43,1154.87
1437.14,1574.29,1535.73
1590.0,1880.0,1811.29
864.29,1048.57,916.14
788.57,957.14,899.05
900.0,950.0,906.84
1345.71,1531.43,1365.13
882.86,1115.71,1037.11
1412.86,1465.71,1425.67
398.57,427.14,409.54
1210.0,1310.0,1305.58
1565.71,1791.43,1781.28
1330.0,1450.0,1409.55
1285.71,1471.43,1417.82
968.57,1197.14,1121.8
307.14,594.29,371.78
442.86,525.71,480.75
705.71,1011.43,812.79
982.86,1225.71,1220.04
785.71,941.43,848.41
788.57,887.14,822.16
421.43,492.86,452.77
1070.0,1270.0,1087.34
1475.71,1741.43,1578.31
1188.57,1267.14,1265.07
1568.57,1747.14,1707.27
521.43,802.86,769.87
492.86,735.71,614.26
834.29,1058.57,979.65
1578.57,1737.14,1692.53
562.86,665.71,602.61
548.57,627.14,587.64
1102.86,1345.71,1175.1
612.86,685.71,672.62
852.86,945.71,919.94
975.71,1211.43,1049.9
1380.0,1630.0,1397.77
Market2,3
Customer6,Customer7,Customer8,
1328.57,1362.86,1328.85
1170.0,1300.0,1284.83
1124.29,1231.43,1204.36
834.29,1041.43,916.4
1078.57,1222.86,1144.72
467.14,535.71,519.0
1015.71,1338.57,1316.89
790.0,900.0,827.59
1048.57,1272.86,1240.69
1450.0,1650.0,1576.23
817.14,1145.71,1106.37
1232.86,1344.29,1267.65
1421.43,1577.14,1535.36
1345.71,1388.57,1370.66
362.86,514.29,449.07
1267.14,1325.71,1270.4
965.71,1088.57,1042.46
1055.71,1358.57,1091.36
1412.86,1684.29,1486.54
1170.0,1410.0,1277.23
642.86,774.29,664.76
860.0,1000.0,901.79
1170.0,1430.0,1393.73
810.0,860.0,843.42
1091.43,1187.14,1184.52
1231.43,1487.14,1471.84
1574.29,1711.43,1648.27
1880.0,2170.0,1896.52
1048.57,1232.86,1176.74
957.14,1125.71,1071.84
950.0,1000.0,966.81
1531.43,1717.14,1626.24
1115.71,1348.57,1257.32
1465.71,1518.57,1505.37
427.14,455.71,452.46
1310.0,1410.0,1328.84
1791.43,2017.14,1935.96
1450.0,1570.0,1466.19
1471.43,1657.14,1511.77
1197.14,1425.71,1274.99
594.29,881.43,847.04
525.71,608.57,561.99
1011.43,1317.14,1157.44
1225.71,1468.57,1346.65
941.43,1097.14,968.22
887.14,985.71,903.4
492.86,564.29,550.56
1270.0,1470.0,1455.02
1741.43,2007.14,1897.73
1267.14,1345.71,1293.66
1747.14,1925.71,1898.5
802.86,1084.29,857.48
735.71,978.57,793.1
1058.57,1282.86,1128.38
1737.14,1895.71,1846.66
665.71,768.57,765.66
627.14,705.71,632.85
1345.71,1588.57,1449.93
685.71,758.57,718.47
945.71,1038.57,1004.08
1211.43,1447.14,1243.98
1630.0,1880.0,1797.18
Market3,4
Customer9,Customer10,Customer11,Customer12,
1362.86,1397.14,1367.16
1300.0,1430.0,1378.92
1231.43,1338.57,1290.05
1041.43,1248.57,1046.21
1222.86,1367.14,1253.55
535.71,604.29,557.36
1338.57,1661.43,1552.36
900.0,1010.0,915.08
1272.86,1497.14,1470.26
1650.0,1850.0,1664.41
1145.71,1474.29,1176.39
1344.29,1455.71,1367.62
1577.14,1732.86,1596.16
1388.57,1431.43,1409.86
514.29,665.71,614.83
1325.71,1384.29,1361.05
1088.57,1211.43,1103.4
1358.57,1661.43,1549.6
1684.29,1955.71,1950.38
1410.0,1650.0,1429.33
774.29,905.71,833.34
1000.0,1140.0,1069.97
1430.0,1690.0,1608.52
860.0,910.0,879.65
1187.14,1282.86,1201.36
1487.14,1742.86,1601.37
1711.43,1848.57,1820.78
2170.0,2460.0,2237.97
1232.86,1417.14,1269.11
1125.71,1294.29,1152.23
1000.0,1050.0,1015.59
1717.14,1902.86,1891.79
1348.57,1581.43,1461.33
1518.57,1571.43,1519.33
455.71,484.29,483.53
1410.0,1510.0,1434.02
2017.14,2242.86,2105.34
1570.0,1690.0,1665.04
1657.14,1842.86,1770.1
1425.71,1654.29,1526.05
881.43,1168.57,1012.32
608.57,691.43,668.79
1317.14,1622.86,1606.44
1468.57,1711.43,1624.7
1097.14,1252.86,1165.64
985.71,1084.29,1053.76
564.29,635.71,579.48
1470.0,1670.0,1474.9
2007.14,2272.86,2080.75
1345.71,1424.29,1386.99
1925.71,2104.29,1936.35
1084.29,1365.71,1273.46
978.57,1221.43,987.75
1282.86,1507.14,1418.9
1895.71,2054.29,1991.29
768.57,871.43,795.89
705.71,784.29,708.75
1588.57,1831.43,1671.29
758.57,831.43,789.62
1038.57,1131.43,1101.38
1447.14,1682.86,1603.44
1880.0,2130.0,2037.06
Market4,1
Customer13,
1397.14,1431.43,1425.58
1430.0,1560.0,1544.13
1338.57,1445.71,1360.77
1248.57,1455.71,1349.04
1367.14,1511.43,1426.52
604.29,672.86,668.02
1661.43,1984.29,1875.39
1010.0,1120.0,1048.97
1497.14,1721.43,1500.96
1850.0,2050.0,2009.48
1474.29,1802.86,1524.43
1455.71,1567.14,1459.38
1732.86,1888.57,1861.81
1431.43,1474.29,1458.65
665.71,817.14,745.38
1384.29,1442.86,1411.55
1211.43,1334.29,1287.35
1661.43,1964.29,1852.64
1955.71,2227.14,1989.8
1650.0,1890.0,1725.3
905.71,1037.14,968.26
1140.0,1280.0,1212.92
1690.0,1950.0,1694.79
910.0,960.0,958.04
1282.86,1378.57,1374.84
1742.86,1998.57,1913.59
1848.57,1985.71,1919.7
2460.0,2750.0,2596.49
1417.14,1601.43,1547.64
1294.29,1462.86,1415.98
1050.0,1100.0,1069.06
1902.86,2088.57,1927.15
1581.43,1814.29,1767.22
1571.43,1624.29,1623.44
484.29,512.86,501.41
1510.0,1610.0,1532.81
2242.86,2468.57,2301.74
1690.0,1810.0,1783.06
1842.86,2028.57,1947.76
1654.29,1882.86,1714.62
1168.57,1455.71,1436.96
691.43,774.29,717.4
1622.86,1928.57,1763.61
1711.43,1954.29,1930.17
1252.86,1408.57,1333.17
1084.29,1182.86,1163.98
635.71,707.14,646.16
1670.0,1870.0,1780.5
2272.86,2538.57,2287.94
1424.29,1502.86,1485.04
2104.29,2282.86,2189.21
1365.71,1647.14,1556.92
1221.43,1464.29,1305.95
1507.14,1731.43,1688.29
2054.29,2212.86,2201.11
871.43,974.29,925.61
784.29,862.86,830.83
1831.43,2074.29,1943.1
831.43,904.29,880.39
1131.43,1224.29,1155.84
1682.86,1918.57,1808.1
2130.0,2380.0,2155.86
Market5,5
Customer14,Customer15,Customer16,Customer17,Customer18,
1431.43,1465.71,1448.63
1560.0,1690.0,1609.64
1445.71,1552.86,1463.64
1455.71,1662.86,1522.1
1511.43,1655.71,1649.95
672.86,741.43,706.34
1984.29,2307.14,2081.18
1120.0,1230.0,1199.99
1721.43,1945.71,1917.51
2050.0,2250.0,2202.65
1802.86,2131.43,1955.79
1567.14,1678.57,1601.66
1888.57,2044.29,1934.01
1474.29,1517.14,1506.94
817.14,968.57,865.56
1442.86,1501.43,1444.0
1334.29,1457.14,1448.57
1964.29,2267.14,2001.24
2227.14,2498.57,2257.27
1890.0,2130.0,2065.51
1037.14,1168.57,1150.31
1280.0,1420.0,1394.23
1950.0,2210.0,2149.44
960.0,1010.0,976.06
1378.57,1474.29,1402.16
1998.57,2254.29,2206.17
1985.71,2122.86,2115.54
2750.0,3040.0,2922.2
1601.43,1785.71,1674.49
1462.86,1631.43,1504.25
1100.0,1150.0,1129.1
2088.57,2274.29,2226.71
1814.29,2047.14,1925.45
1624.29,1677.14,1675.34
512.86,541.43,518.73
1610.0,1710.0,1671.62
2468.57,2694.29,2674.53
1810.0,1930.0,1926.66
2028.57,2214.29,2078.54
1882.86,2111.43,1886.79
1455.71,1742.86,1712.26
774.29,857.14,843.36
1928.57,2234.29,2156.4
1954.29,2197.14,2130.94
1408.57,1564.29,1478.05
1182.86,1281.43,1247.12
707.14,778.57,744.53
1870.0,2070.0,2003.23
2538.57,2804.29,2586.31
1502.86,1581.43,1542.79
2282.86,2461.43,2373.8
1647.14,1928.57,1891.39
1464.29,1707.14,1510.16
1731.43,1955.71,1871.42
2212.86,2371.43,2351.58
974.29,1077.14,1030.14
862.86,941.43,908.21
2074.29,2317.14,2233.55
904.29,977.14,948.59
1224.29,1317.14,1272.32
1918.57,2154.29,2088.33
2380.0,2630.0,2539.83
Market6,2
Customer19,Customer20,
1465.71,1500.0,1485.38
1690.0,1820.0,1806.09
1552.86,1660.0,1585.95
1662.86,1870.0,1809.52
1655.71,1800.0,1675.96
741.43,810.0,751.37
2307.14,2630.0,2621.5
1230.0,1340.0,1296.37
1945.71,2170.0,2071.65
2250.0,2450.0,2428.03
2131.43,2460.0,2172.82
1678.57,1790.0,1712.82
2044.29,2200.0,2085.42
1517.14,1560.0,1526.74
968.57,1120.0,1035.62
1501.43,1560.0,1506.81
1457.14,1580.0,1528.33
2267.14,2570.0,2323.02
2498.57,2770.0,2653.58
2130.0,2370.0,2359.87
1168.57,1300.0,1288.42
1420.0,1560.0,1421.1
2210.0,2470.0,2314.79
1010.0,1060.0,1052.0
1474.29,1570.0,1491.35
2254.29,2510.0,2383.23
2122.86,2260.0,2127.65
3040.0,3330.0,3062.29
1785.71,1970.0,1821.58
1631.43,1800.0,1749.61
1150.0,1200.0,1191.24
2274.29,2460.0,2404.56
2047.14,2280.0,2232.23
1677.14,1730.0,1686.0
541.43,570.0,554.44
1710.0,1810.0,1749.52
2694.29,2920.0,2828.32
1930.0,2050.0,2047.93
2214.29,2400.0,2387.69
2111.43,2340.0,2112.99
1742.86,2030.0,1880.22
857.14,940.0,868.52
2234.29,2540.0,2239.53
2197.14,2440.0,2290.89
1564.29,1720.0,1580.03
1281.43,1380.0,1308.08
778.57,850.0,823.94
2070.0,2270.0,2251.01
2804.29,3070.0,3038.76
1581.43,1660.0,1584.08
2461.43,2640.0,2551.56
1928.57,2210.0,2055.25
1707.14,1950.0,1776.05
1955.71,2180.0,1967.17
2371.43,2530.0,2415.47
1077.14,1180.0,1164.9
941.43,1020.0,973.22
2317.14,2560.0,2411.43
977.14,1050.0,994.93
1317.14,1410.0,1382.4
2154.29,2390.0,2220.18
2630.0,2880.0,2803.3
